{
    "code": "Ok",
    "durations": [
        [
            0.0,
            2086.4,
            1446.7
        ],
        [
            2204.1,
            0.0,
            2207.8
        ],
        [
            1395.7,
            2223.5,
            0.0
        ]
    ],
    "destinations": [
        {
            "distance": 10.237847507,
            "name": "McAllister Street",
            "location": [
                -122.420019,
                37.780091
            ]
        },
        {
            "distance": 1858.859021288,
            "name": "Playa Verde",
            "location": [
                -122.461997,
                37.89621
            ]
        },
        {
            "distance": 4.350951991,
            "name": "",
            "location": [
                -122.480005,
                37.730039
            ]
        }
    ],
    "sources": [
        {
            "distance": 10.237847507,
            "name": "McAllister Street",
            "location": [
                -122.420019,
                37.780091
            ]
        },
        {
            "distance": 1858.859021288,
            "name": "Playa Verde",
            "location": [
                -122.461997,
                37.89621
            ]
        },
        {
            "distance": 4.350951991,
            "name": "",
            "location": [
                -122.480005,
                37.730039
            ]
        }
    ]
}